Release 14.7 - WebTalk (P.20131013)
Copyright (c) 1995-2010 Xilinx, Inc.  All rights reserved.

Project Information
--------------------
ProjectID=F7D29D165F584E3CAEEDE34101045B2F
ProjectIteration=7

WebTalk Summary
----------------
INFO:WebTalk:1 - WebTalk is enabled because you are using a WebPACK license.

INFO:WebTalk:8 - WebTalk Install setting is ON.
INFO:WebTalk:6 - WebTalk User setting is ON.

INFO:WebTalk:4 - D:/Data/CAPP/FPGA_Spartan6/Projects/5_UART/usage_statistics_webtalk.html WebTalk report has been successfully sent to Xilinx on 2015-10-29T10:01:57.  For additional details about this file, please refer to the WebTalk help file at C:/Xilinx/14.7/ISE_DS/ISE/data/reports/webtalk_introduction.html
